<?xml version="1.0" encoding="utf-8"?>
<!-- Generator: Adobe Illustrator 16.0.0, SVG Export Plug-In . SVG Version: 6.00 Build 0)  -->
<!DOCTYPE svg PUBLIC "-//W3C//DTD SVG 1.1//EN" "http://www.w3.org/Graphics/SVG/1.1/DTD/svg11.dtd">
<svg version="1.1" id="Layer_1" xmlns="http://www.w3.org/2000/svg" xmlns:xlink="http://www.w3.org/1999/xlink" x="0px" y="0px"
	 width="713px" height="327px" viewBox="0 0 713 327" enable-background="new 0 0 713 327" xml:space="preserve">
<g>
	<path fill="#29ABE2" d="M94.787,122.539c0-17.247-2.565-29.774-7.696-37.583c-5.131-7.808-13.278-11.713-24.44-11.713
		c-11.523,0-20.028,3.926-25.519,11.777c-5.491,7.852-8.237,20.015-8.237,36.49v72.464H3.407V52.392h23.862v16.604
		c4.954-6.349,10.562-11.09,16.824-14.223c6.262-3.131,13.401-4.698,21.42-4.698c10.81,0,19.819,1.975,27.027,5.921
		c7.207,3.947,13.108,10.126,17.703,18.534c4.623-8.238,10.739-14.372,18.352-18.406c7.611-4.032,16.901-6.049,27.868-6.049
		c16.856,0,30.359,5.212,40.511,15.638c10.149,10.426,15.224,24.349,15.224,41.767v86.494h-26.98V111.47
		c0-12.098-2.792-21.494-8.374-28.188c-5.582-6.693-13.365-10.039-23.349-10.039c-11.62,0-19.97,3.562-25.052,10.683
		c-5.085,7.123-7.625,19.136-7.625,36.039v74.009H94.787V122.539z"/>
	<path fill="none" stroke="#29AAE2" stroke-width="7" stroke-miterlimit="10" d="M94.787,122.539
		c0-17.247-2.565-29.774-7.696-37.583c-5.131-7.808-13.278-11.713-24.44-11.713c-11.523,0-20.028,3.926-25.519,11.777
		c-5.491,7.852-8.237,20.015-8.237,36.49v72.464H3.407V52.392h23.862v16.604c4.954-6.349,10.562-11.09,16.824-14.223
		c6.262-3.131,13.401-4.698,21.42-4.698c10.81,0,19.819,1.975,27.027,5.921c7.207,3.947,13.108,10.126,17.703,18.534
		c4.623-8.238,10.739-14.372,18.352-18.406c7.611-4.032,16.901-6.049,27.868-6.049c16.856,0,30.359,5.212,40.511,15.638
		c10.149,10.426,15.224,24.349,15.224,41.767v86.494h-26.98V111.47c0-12.098-2.792-21.494-8.374-28.188
		c-5.582-6.693-13.365-10.039-23.349-10.039c-11.62,0-19.97,3.562-25.052,10.683c-5.085,7.123-7.625,19.136-7.625,36.039v74.009
		H94.787V122.539z"/>
	<path fill="#29ABE2" d="M259.662,35.788h-26.574V6.571h26.574V35.788z M233.088,52.391h26.574v141.583h-26.574V52.391z"/>
	<path fill="none" stroke="#29AAE2" stroke-width="7" stroke-miterlimit="10" d="M259.662,35.788h-26.574V6.571h26.574V35.788z
		 M233.088,52.391h26.574v141.583h-26.574V52.391z"/>
	<rect x="280.552" y="6.57" fill="#29ABE2" width="26.574" height="187.403"/>
	
		<rect x="280.552" y="6.57" fill="none" stroke="#29AAE2" stroke-width="7" stroke-miterlimit="10" width="26.574" height="187.403"/>
	<rect x="328.015" y="6.57" fill="#29ABE2" width="26.574" height="187.403"/>
	
		<rect x="328.015" y="6.57" fill="none" stroke="#29AAE2" stroke-width="7" stroke-miterlimit="10" width="26.574" height="187.403"/>
	<path fill="#29ABE2" d="M402.053,35.788h-26.574V6.571h26.574V35.788z M375.479,52.391h26.574v141.583h-26.574V52.391z"/>
	<path fill="none" stroke="#29AAE2" stroke-width="7" stroke-miterlimit="10" d="M402.053,35.788h-26.574V6.571h26.574V35.788z
		 M375.479,52.391h26.574v141.583h-26.574V52.391z"/>
	<path fill="#29ABE2" d="M414.266,123.312c0-10.04,1.784-19.414,5.355-28.124c3.569-8.708,8.833-16.539,15.796-23.49
		c7.501-7.636,15.95-13.514,25.353-17.633c9.399-4.118,19.161-6.179,29.285-6.179c10.847,0,20.899,1.847,30.167,5.536
		c9.263,3.69,17.646,9.138,25.148,16.345c7.322,7.124,12.948,15.146,16.881,24.07c3.932,8.925,5.897,18.148,5.897,27.673
		c0,9.698-1.831,19.136-5.491,28.316c-3.661,9.183-8.792,17.205-15.388,24.069c-7.593,7.896-16.113,13.881-25.557,17.956
		c-9.446,4.074-19.502,6.113-30.167,6.113c-10.938,0-21.016-1.867-30.234-5.6s-17.489-9.244-24.811-16.539
		c-6.962-6.95-12.405-15.038-16.338-24.262C416.231,142.341,414.266,132.922,414.266,123.312 M442.06,123.054
		c0,14.158,4.722,25.958,14.168,35.396c9.444,9.44,21.218,14.158,35.318,14.158c13.829,0,25.422-4.741,34.776-14.222
		s14.032-21.344,14.032-35.59c0-14.329-4.678-26.17-14.032-35.524c-9.354-9.351-21.039-14.029-35.048-14.029
		c-13.92,0-25.603,4.742-35.047,14.223C446.781,96.948,442.06,108.812,442.06,123.054"/>
	<path fill="none" stroke="#29AAE2" stroke-width="7" stroke-miterlimit="10" d="M414.266,123.312
		c0-10.04,1.784-19.414,5.355-28.124c3.569-8.708,8.833-16.539,15.796-23.49c7.501-7.636,15.95-13.514,25.353-17.633
		c9.399-4.118,19.161-6.179,29.285-6.179c10.847,0,20.899,1.847,30.167,5.536c9.263,3.69,17.646,9.138,25.148,16.345
		c7.322,7.124,12.948,15.146,16.881,24.07c3.932,8.925,5.897,18.148,5.897,27.673c0,9.698-1.831,19.136-5.491,28.316
		c-3.661,9.183-8.792,17.205-15.388,24.069c-7.593,7.896-16.113,13.881-25.557,17.956c-9.446,4.074-19.502,6.113-30.167,6.113
		c-10.938,0-21.016-1.867-30.234-5.6s-17.489-9.244-24.811-16.539c-6.962-6.95-12.405-15.038-16.338-24.262
		C416.231,142.341,414.266,132.922,414.266,123.312z M442.06,123.054c0,14.158,4.722,25.958,14.168,35.396
		c9.444,9.44,21.218,14.158,35.318,14.158c13.829,0,25.422-4.741,34.776-14.222s14.032-21.344,14.032-35.59
		c0-14.329-4.678-26.17-14.032-35.524c-9.354-9.351-21.039-14.029-35.048-14.029c-13.92,0-25.603,4.742-35.047,14.223
		C446.781,96.948,442.06,108.812,442.06,123.054z"/>
	<path fill="#29ABE2" d="M606.935,193.974H580.09V52.391h25.76v16.09c5.603-6.349,11.771-11.005,18.507-13.965
		c6.732-2.961,14.439-4.441,23.116-4.441c19.523,0,34.505,5.45,44.945,16.347c10.438,10.897,15.658,26.514,15.658,46.85v80.702
		h-26.979v-75.168c0-15.014-2.938-26.148-8.813-33.399c-5.876-7.251-14.96-10.877-27.252-10.877c-13.377,0-23.07,4.27-29.081,12.806
		c-6.012,8.54-9.016,22.634-9.016,42.282V193.974z"/>
	<path fill="none" stroke="#29AAE2" stroke-width="7" stroke-miterlimit="10" d="M606.935,193.974H580.09V52.391h25.76v16.09
		c5.603-6.349,11.771-11.005,18.507-13.965c6.732-2.961,14.439-4.441,23.116-4.441c19.523,0,34.505,5.45,44.945,16.347
		c10.438,10.897,15.658,26.514,15.658,46.85v80.702h-26.979v-75.168c0-15.014-2.938-26.148-8.813-33.399
		c-5.876-7.251-14.96-10.877-27.252-10.877c-13.377,0-23.07,4.27-29.081,12.806c-6.012,8.54-9.016,22.634-9.016,42.282V193.974z"/>
	<path fill="#636363" d="M62.299,252.298c-0.632,1.012-1.295,1.771-1.991,2.275c-0.695,0.505-1.59,0.758-2.685,0.758
		c-0.97,0-2.012-0.304-3.128-0.916c-1.116-0.61-2.381-1.295-3.791-2.054c-1.412-0.758-3.024-1.442-4.834-2.054
		c-1.812-0.61-3.877-0.916-6.193-0.916c-4.003,0-6.982,0.853-8.941,2.559c-1.959,1.707-2.938,4.013-2.938,6.92
		c0,1.854,0.589,3.392,1.769,4.613c1.179,1.222,2.727,2.274,4.644,3.159s4.108,1.696,6.572,2.433
		c2.464,0.737,4.981,1.559,7.551,2.464c2.569,0.906,5.087,1.97,7.551,3.191c2.465,1.223,4.655,2.78,6.572,4.676
		c1.916,1.896,3.465,4.203,4.644,6.92c1.179,2.717,1.77,5.993,1.77,9.826c0,4.255-0.738,8.235-2.212,11.942
		c-1.475,3.707-3.612,6.94-6.414,9.699c-2.802,2.76-6.256,4.929-10.363,6.509c-4.107,1.579-8.773,2.369-13.996,2.369
		c-2.865,0-5.782-0.295-8.752-0.885c-2.97-0.589-5.845-1.421-8.626-2.495c-2.78-1.074-5.392-2.348-7.835-3.823
		c-2.443-1.475-4.571-3.117-6.382-4.929l6.319-9.984c0.463-0.758,1.116-1.368,1.959-1.832c0.842-0.463,1.748-0.695,2.717-0.695
		c1.264,0,2.537,0.4,3.823,1.2c1.285,0.801,2.738,1.686,4.36,2.654c1.622,0.97,3.485,1.854,5.592,2.654
		c2.106,0.801,4.592,1.2,7.457,1.2c3.875,0,6.887-0.853,9.036-2.559c2.148-1.707,3.223-4.413,3.223-8.12
		c0-2.148-0.591-3.896-1.77-5.245c-1.18-1.348-2.728-2.464-4.645-3.349s-4.097-1.664-6.54-2.338s-4.95-1.422-7.519-2.243
		c-2.57-0.822-5.077-1.833-7.52-3.033s-4.623-2.78-6.54-4.739s-3.465-4.401-4.644-7.33c-1.18-2.928-1.769-6.54-1.769-10.837
		c0-3.454,0.695-6.824,2.085-10.11c1.39-3.286,3.433-6.214,6.129-8.783c2.696-2.568,6.004-4.623,9.921-6.161
		c3.918-1.537,8.404-2.307,13.459-2.307c2.822,0,5.571,0.222,8.247,0.664c2.674,0.441,5.213,1.096,7.614,1.958
		c2.401,0.864,4.644,1.896,6.73,3.097c2.085,1.2,3.949,2.56,5.592,4.076L62.299,252.298z"/>
	<path fill="#636363" d="M152.406,294.888v30.773h-21.358v-92.067h32.479c6.487,0,12.059,0.77,16.714,2.307
		c4.654,1.538,8.488,3.655,11.5,6.351c3.012,2.696,5.234,5.878,6.667,9.542c1.432,3.665,2.148,7.625,2.148,11.879
		c0,4.593-0.737,8.806-2.212,12.639s-3.728,7.119-6.761,9.857c-3.033,2.738-6.878,4.876-11.532,6.413
		c-4.655,1.539-10.164,2.307-16.524,2.307H152.406z M152.406,278.774h11.121c5.561,0,9.563-1.327,12.006-3.979
		c2.443-2.655,3.665-6.361,3.665-11.123c0-2.105-0.316-4.022-0.948-5.75c-0.632-1.727-1.59-3.212-2.875-4.455
		c-1.285-1.241-2.907-2.2-4.865-2.875c-1.959-0.672-4.288-1.011-6.983-1.011h-11.121V278.774z"/>
	<path fill="#636363" d="M338.183,325.661h-16.556c-1.854,0-3.38-0.432-4.581-1.295c-1.201-0.863-2.033-1.969-2.496-3.318
		l-5.434-16.05h-35.008l-5.434,16.05c-0.422,1.181-1.243,2.244-2.464,3.191c-1.222,0.948-2.717,1.422-4.486,1.422h-16.683
		l35.639-92.067h21.864L338.183,325.661z M279.037,290.465h25.149l-8.467-25.213c-0.548-1.601-1.19-3.485-1.927-5.655
		c-0.737-2.169-1.464-4.519-2.18-7.046c-0.675,2.57-1.369,4.95-2.085,7.141c-0.717,2.19-1.39,4.086-2.022,5.687L279.037,290.465z"/>
	<path fill="#636363" d="M455.272,301.839c0.505,0,1.011,0.095,1.517,0.284c0.505,0.189,0.989,0.517,1.453,0.979l8.467,8.91
		c-3.708,4.845-8.352,8.498-13.933,10.963c-5.583,2.465-12.187,3.696-19.811,3.696c-6.992,0-13.26-1.189-18.799-3.57
		c-5.54-2.379-10.235-5.665-14.091-9.857c-3.854-4.191-6.814-9.162-8.878-14.912c-2.065-5.751-3.096-11.995-3.096-18.736
		c0-6.865,1.178-13.175,3.538-18.925c2.358-5.75,5.654-10.711,9.889-14.881c4.234-4.171,9.299-7.414,15.197-9.731
		c5.897-2.316,12.405-3.476,19.525-3.476c3.454,0,6.708,0.307,9.764,0.916c3.053,0.611,5.907,1.454,8.562,2.528
		s5.096,2.359,7.33,3.854c2.232,1.495,4.212,3.149,5.94,4.96l-7.204,9.668c-0.464,0.591-1.012,1.128-1.644,1.611
		c-0.632,0.484-1.517,0.727-2.653,0.727c-0.759,0-1.476-0.168-2.148-0.505c-0.675-0.337-1.39-0.748-2.149-1.232
		c-0.758-0.484-1.59-1.012-2.496-1.58c-0.905-0.568-1.979-1.095-3.222-1.58c-1.244-0.483-2.696-0.895-4.359-1.231
		c-1.665-0.337-3.613-0.506-5.846-0.506c-3.877,0-7.416,0.686-10.616,2.054c-3.201,1.369-5.95,3.328-8.246,5.877
		c-2.297,2.55-4.086,5.635-5.371,9.258c-1.285,3.624-1.928,7.688-1.928,12.194c0,4.719,0.643,8.91,1.928,12.575
		s3.032,6.751,5.245,9.257c2.212,2.507,4.792,4.414,7.74,5.719c2.948,1.307,6.107,1.959,9.479,1.959
		c1.937,0,3.707-0.095,5.308-0.284c1.602-0.189,3.086-0.516,4.455-0.979c1.368-0.463,2.674-1.063,3.918-1.801
		c1.242-0.736,2.496-1.653,3.759-2.749c0.507-0.421,1.054-0.767,1.644-1.043C454.029,301.976,454.641,301.839,455.272,301.839"/>
	<polygon fill="#636363" points="587.274,233.594 587.274,250.023 549.487,250.023 549.487,271.508 578.428,271.508 
		578.428,287.305 549.487,287.305 549.487,309.231 587.274,309.231 587.274,325.661 528.003,325.661 528.003,233.594 	"/>
	<path fill="#636363" d="M702.278,252.298c-0.632,1.012-1.295,1.771-1.989,2.275c-0.696,0.505-1.592,0.758-2.687,0.758
		c-0.97,0-2.012-0.304-3.128-0.916c-1.117-0.61-2.381-1.295-3.792-2.054c-1.411-0.758-3.022-1.442-4.834-2.054
		c-1.811-0.61-3.876-0.916-6.192-0.916c-4.002,0-6.981,0.853-8.94,2.559c-1.959,1.707-2.938,4.013-2.938,6.92
		c0,1.854,0.589,3.392,1.77,4.613c1.178,1.222,2.727,2.274,4.644,3.159s4.108,1.696,6.572,2.433
		c2.464,0.737,4.981,1.559,7.551,2.464c2.569,0.906,5.087,1.97,7.551,3.191c2.466,1.223,4.654,2.78,6.572,4.676
		c1.916,1.896,3.464,4.203,4.646,6.92c1.178,2.717,1.768,5.993,1.768,9.826c0,4.255-0.737,8.235-2.211,11.942
		c-1.475,3.707-3.613,6.94-6.414,9.699c-2.801,2.76-6.256,4.929-10.363,6.509c-4.106,1.579-8.772,2.369-13.996,2.369
		c-2.864,0-5.781-0.295-8.752-0.885c-2.97-0.589-5.845-1.421-8.625-2.495c-2.779-1.074-5.394-2.348-7.836-3.823
		c-2.442-1.475-4.57-3.117-6.382-4.929l6.319-9.984c0.463-0.758,1.116-1.368,1.959-1.832c0.842-0.463,1.748-0.695,2.717-0.695
		c1.264,0,2.537,0.4,3.823,1.2c1.285,0.801,2.737,1.686,4.359,2.654c1.621,0.97,3.485,1.854,5.594,2.654
		c2.104,0.801,4.591,1.2,7.456,1.2c3.875,0,6.887-0.853,9.035-2.559c2.148-1.707,3.224-4.413,3.224-8.12
		c0-2.148-0.591-3.896-1.771-5.245c-1.18-1.348-2.728-2.464-4.645-3.349s-4.098-1.664-6.54-2.338
		c-2.443-0.674-4.95-1.422-7.52-2.243c-2.569-0.822-5.076-1.833-7.52-3.033s-4.624-2.78-6.54-4.739
		c-1.917-1.959-3.465-4.401-4.644-7.33c-1.181-2.928-1.771-6.54-1.771-10.837c0-3.454,0.696-6.824,2.086-10.11
		c1.391-3.286,3.434-6.214,6.129-8.783c2.695-2.568,6.003-4.623,9.921-6.161c3.918-1.537,8.404-2.307,13.459-2.307
		c2.822,0,5.571,0.222,8.247,0.664c2.674,0.441,5.213,1.096,7.614,1.958c2.401,0.864,4.644,1.896,6.729,3.097
		s3.949,2.56,5.593,4.076L702.278,252.298z"/>
</g>
</svg>
